^C:\USERS\SCANVIZ\SOURCE\REPOS\CRYPTOLAB1\DEBUG\CRYPTOLAB1.OBJ
C:\USERS\SCANVIZ\SOURCE\REPOS\CRYPTOLAB1\DEBUG\CRYPTOLAB1.EXE
C:\USERS\SCANVIZ\SOURCE\REPOS\CRYPTOLAB1\DEBUG\CRYPTOLAB1.ILK
C:\USERS\SCANVIZ\SOURCE\REPOS\CRYPTOLAB1\DEBUG\CRYPTOLAB1.PDB
